{
  "authors" : {
    "-KOslJKHcGRjQA7eg3cY" : {
      "authorId" : "-KOslJKHcGRjQA7eg3cY",
      "name" : "Unknown",
      "poems" : {
        "-KbAWDUBG2ihMMCo78vC" : true,
        "-Kd_NXY2pFTCLz6jQSoR" : true,
        "-Kd_cZwXleMY1nXJTIr4" : true,
        "-KflFs-Eb0TSqSzoKGNx" : true,
        "-KflPw5N9EkoMUmFqJGk" : true,
        "-KgNd6iph3X0oheVwtK-" : true,
        "-KgOu6T2hrLZuk_y73un" : true,
        "-KgOyV5LlVUW51OXPfFC" : true,
        "-KgOz-xliwRA6ofsaYx7" : true,
        "-KgP0Fand-KiKw2mRnzG" : true,
        "-KgP1s_1NypzBXVKFLn0" : true,
        "-KgP7Cgezlc5QxIWwuGn" : true,
        "-KgPAF4lHxURBV_-CJpc" : true,
        "-Kgy5a3n8nlczJRhlCFH" : true,
        "-KgyBh3BThWCpHHEfJHd" : true,
        "-KgyEoy6ZlY0sgXRadIo" : true,
        "-KgyRPTwuZTst3V7qMz4" : true,
        "-Kh2Waqk98_6KbKzZfGJ" : true,
        "-Kh6KVVVagyVdwlhow6j" : true,
        "-Kh6Lsig4M7xqrpKvGKI" : true,
        "-Kh6M6lNxU6BAki_3Q2A" : true,
        "-Kh6OVtwi7hMhc_Rl3Wt" : true,
        "-Kh6YaBHRb_A-84JUZN9" : true,
        "-Kh6YsHljFUoeygbdcRP" : true,
        "-Kh6_w9nLuXFvm89ZHSv" : true,
        "-Kh71s3Fq7m125v-5Ou3" : true,
        "-Kh724A84aUN4sR62Uir" : true,
        "-Kh72R2L_MS0AE81n6fq" : true,
        "-Kh7C9CsMN92Z8yiLR5S" : true,
        "-Kh7DWVarTSey4V9R39x" : true,
        "-Kh7PAk1Dh8MRiDRsVSw" : true,
        "-Kh7s8hXmo29yixvOAuk" : true,
        "-Kh7uwRErAaB9y3sY80b" : true,
        "-Kh81_82qf6HXlqtzVzX" : true,
        "-Kh88KXQNb7zsNnhPUpF" : true
      }
    },
    "-KbAOhwWsE-LKqz-Tafz" : {
      "authorId" : "-KbAOhwWsE-LKqz-Tafz",
      "name" : "Vyloppilly Sreedhara Menon",
      "poems" : {
        "-KbAOjHMMixjKnan3qkD" : true
      }
    },
    "-Kbj8G5OFEtFp-5ahK5w" : {
      "authorId" : "-Kbj8G5OFEtFp-5ahK5w",
      "name" : "Sri Aurobindo",
      "poems" : {
        "-Kbj8IYE60T97iq7M3FW" : true,
        "-Kbj8dpIEX3InogLxVNM" : true
      }
    },
    "-Kbj9UZwV1upl-mw8o77" : {
      "authorId" : "-Kbj9UZwV1upl-mw8o77",
      "name" : "Rumi",
      "poems" : {
        "-Kbj9WFMp-rNThrF5VL-" : true,
        "-Kbj9mxz8Mm3IMj0E0fA" : true,
        "-Kbj9ywlMmBSfwFQbZrM" : true
      }
    },
    "-KbjAdGRFigcmoGJ5MSA" : {
      "authorId" : "-KbjAdGRFigcmoGJ5MSA",
      "name" : "Hafiz",
      "poems" : {
        "-KbjAdiotGShi-xaJXyG" : true,
        "-KbjAljRPMpED7HIZbd6" : true,
        "-KbjAtNI6JHpenfKgXzw" : true,
        "-KbjB2KbAGjuMrQqMV_n" : true
      }
    },
    "-KcStPZIwJqBpumiEHzu" : {
      "authorId" : "-KcStPZIwJqBpumiEHzu",
      "name" : "Charles dickens",
      "poems" : {
        "-KcStQBWcQ_nNeB8qdPE" : true
      }
    }
  },
  "languages" : {
    "-KSfSFsCV3ODqley54dJ" : {
      "code" : "en_US",
      "langId" : "-KSfSFsCV3ODqley54dJ",
      "name" : "English",
      "poems" : {
        "-Kbj8IYE60T97iq7M3FW" : true,
        "-Kbj8dpIEX3InogLxVNM" : true,
        "-Kbj9WFMp-rNThrF5VL-" : true,
        "-KbjB2KbAGjuMrQqMV_n" : true,
        "-KcStQBWcQ_nNeB8qdPE" : true
      },
      "rank" : 1
    },
    "-KSfT0hzN_MFlQNbdUkw" : {
      "code" : "ml_IN",
      "langId" : "-KSfT0hzN_MFlQNbdUkw",
      "name" : "Malayalam",
      "poems" : {
        "-KbAOjHMMixjKnan3qkD" : true,
        "-KbAWDUBG2ihMMCo78vC" : true
      },
      "rank" : 4
    }
  },
  "mood" : {
    "-KR7m0W-xhMkGAc0Cmgv" : {
      "moodId" : "-KR7m0W-xhMkGAc0Cmgv",
      "name" : "Alone",
      "poems" : {
        "-KbAOjHMMixjKnan3qkD" : true
      },
      "rank" : 125
    },
    "-KR7nqJhs-JObcKvCRV2" : {
      "moodId" : "-KR7nqJhs-JObcKvCRV2",
      "name" : "Cheerful",
      "poems" : {
        "-KcStQBWcQ_nNeB8qdPE" : true,
        "-Kh88KXQNb7zsNnhPUpF" : true
      },
      "rank" : 92
    },
    "-KR7vF88MdJlOg6A_3ZG" : {
      "moodId" : "-KR7vF88MdJlOg6A_3ZG",
      "name" : "Nostalgic",
      "poems" : {
        "-KbAWDUBG2ihMMCo78vC" : true,
        "-KcStQBWcQ_nNeB8qdPE" : true,
        "-Kh88KXQNb7zsNnhPUpF" : true
      },
      "rank" : 102
    }
  },
  "poems" : {
    "-KbAOjHMMixjKnan3qkD" : {
      "author" : "-KbAOhwWsE-LKqz-Tafz",
      "body" : "അങ്കണത്തൈമാവില്‍നിന്നാദ്യത്തെ പഴം വീഴ്‌കെ\nഅമ്മതന്‍ നേത്രത്തില്‍ നിന്നുതിര്‍ന്നൂ ചുടുകണ്ണീര്‍\n\nനാലുമാസത്തിന്‍ മുന്‍പില്‍ ഏറെനാള്‍ കൊതിച്ചിട്ടീ\nബാലമാകന്ദം പൂവിട്ടുണ്ണികള്‍ വിരിയവേ\n\nഅമ്മതന്‍ മണിക്കുട്ടന്‍ പൂത്തിരികത്തിച്ചപോല്‍\nഅമ്മലര്‍ച്ചെണ്ടൊന്നൊടിച്ചാഹ്ലാദിച്ചടുത്തെത്തീ\n\nചൊടിച്ചൂ മാതാവപ്പോള്‍ ഉണ്ണികള്‍ വിരിഞ്ഞ-\nപൂവിറുത്തു കളഞ്ഞല്ലോ കുസൃതിക്കുരുന്നേ നീ\n\nമാങ്കനി വീഴുന്നേരം ഓടിച്ചെന്നെടുക്കേണ്ടോന്‍\nപൂങ്കുല തല്ലുന്നതു തല്ലുകൊള്ളാഞ്ഞിട്ടല്ലേ\n\nപൈതലിന്‍ ഭാവം മാറി വദനാംബുജം വാടീ\nകൈതവം കാണാക്കണ്ണ് കണ്ണുനീര്‍ത്തടാകമായ്\n\nമാമ്പഴം പെറുക്കുവാന്‍ ഞാന്‍ വരുന്നില്ലെന്നവന്‍\nമാണ്‍പെഴും മലര്‍ക്കുലയെറിഞ്ഞൂ വെറും മണ്ണില്‍\n\nവാക്കുകള്‍ കൂട്ടിച്ചൊല്ലാന്‍ വയ്യാത്ത കിടാങ്ങളേ\nദീര്‍ഘദര്‍ശനം ചെയ്യും ദൈവജ്ഞരല്ലോ നിങ്ങള്‍\n\nതുംഗമാം മീനച്ചൂടാല്‍ തൈമാവിന്‍ മരതക\nക്കിങ്ങിണി സൗഗന്ധിക സ്വര്‍ണ്ണമായ് തീരും മുന്‍പേ\n\nമാങ്കനി വീഴാന്‍ കാത്തു നില്‍ക്കാതെ മാതാവിന്റെ\nപൂങ്കുയില്‍ കൂടും വിട്ട് പരലോകത്തെ പൂകി.\n\nവാനവര്‍ക്കാരോമലായ് പാരിനെക്കുറിച്ചുദാസീനനായ്\nക്രീഡാരസാ ലീനനായ് അവന്‍ വാഴ്‌കെ\n\nഅങ്കണത്തൈമാവില്‍നിന്നാദ്യത്തെ പഴം വീഴ്‌കെ\nഅമ്മതന്‍ നേത്രത്തില്‍ നിന്നുതിര്‍ന്നൂ ചുടുകണ്ണീര്‍\n\nതന്മകനമൃതേകാന്‍ താഴോട്ടു നിപതിച്ച പൊന്‍പഴം\nമുറ്റത്താര്‍ക്കും വേണ്ടാതെ കിടക്കവേ\n\nഅയല്‍പക്കത്തെ കൊച്ചുകുട്ടികള്‍ ഉല്‍സാഹത്തോ-\nടവര്‍തന്‍ മാവിന്‍ചോട്ടില്‍ കളിവീടുണ്ടാക്കുന്നു\n\nപൂവാലനണ്ണാര്‍ക്കണ്ണാ മാമ്പഴം തരികെന്നു\nപൂവാളും കൊതിയോടെ വിളിച്ചുപാടീടുന്നു\n\nഉതിരും മധുരങ്ങളോടിച്ചെന്നെടുക്കുന്നൂ\nമുതിരും കോലാഹലമങ്കലധ്വാനത്തോടും\n\nവാസന്തമഹോത്സവമാണവര്‍ക്കെന്നാല്‍\nഅവള്‍ക്കാ ഹന്ത! കണ്ണീരിനാല്‍ അന്ധമാം വര്‍ഷാകാലം\n\nപുരതോനിസ്തബ്ധയായ് തെല്ലിട നിന്നിട്ട് തന്‍\nദുരിതഫലം പോലുള്ളപ്പഴമെടുത്തവള്‍\n\nതന്നുണ്ണിക്കിടാവിന്റെ താരുടല്‍ മറചെയ്ത\nമണ്ണില്‍ താന്‍ നിക്ഷേപിച്ചു മന്ദമായ് ഏവം ചൊന്നാള്‍\n\nഉണ്ണിക്കൈക്കെടുക്കുവാന്‍ ഉണ്ണിവായ്ക്കുണ്ണാന്‍ വേണ്ടി\nവന്നതാണീ മാമ്പഴം; ാസ്തവമറിയാതെ\n\nനീരസം ഭാവിച്ച് നീ പോയിതെങ്കിലും\nകുഞ്ഞേ നീയിതു നുകര്‍ന്നാലേ അമ്മക്കു സുഖമാവൂ\n\nപിണങ്ങിപ്പോയീടിലും പിന്നെ ഞാന്‍ വിളിക്കുമ്പോള്‍\nകുണുങ്ങിക്കുണുങ്ങി നീ ഉണ്ണുവാന്‍ വരാറില്ലേ\n\nവരിക കണ്ണാല്‍ കാണാന്‍ വയ്യാത്തൊരെന്‍ കണ്ണനേ\nതരസാ നുകര്‍ന്നാലും തായ തന്‍ നൈവേദ്യം നീ\n\nഒരു തൈകുളിര്‍കാറ്റായരികത്തണഞ്ഞപ്പോള്‍\nഅരുമക്കുഞ്ഞിന്‍ പ്രാണന്‍ അമ്മയെ ആശ്ലേഷിച്ചു.",
      "defaultTitle" : false,
      "id" : "-KbAOjHMMixjKnan3qkD",
      "languages" : {
        "-KSfT0hzN_MFlQNbdUkw" : true
      },
      "likes" : {
        "5ScOhPfV56fPBAUjN99a4akA4ut1" : true,
        "FjtbQ0uEu7d27LzRE6b24jqezhH2" : true,
        "HPQrKA3rw9f5E2f8gdHGkFFFtWJ3" : true
      },
      "likesCount" : 3,
      "modifiedTime" : 1529502606795,
      "mood" : {
        "-KR7m0W-xhMkGAc0Cmgv" : true,
        "-KR7qS4qKWjOX5hg3Kct" : true,
        "-KR7sW6NS5GwFj5TevW-" : true
      },
      "poemId" : "-KbAOjHMMixjKnan3qkD",
      "title" : "മാമ്പഴം",
      "userId" : "o28j4IVcDGZvujFTjN0KY5gFQE73",
      "userName" : "Muammil K A"
    },
    "-KbAWDUBG2ihMMCo78vC" : {
      "author" : "-KOslJKHcGRjQA7eg3cY",
      "body" : "Thingalum tharangalum thoovelli kathir chinnum\nthoongamam vanin chottil aanente vidyalayam\n\nInnale kanneer varthu karinjeedina vaanam\nInnithaa chirikkunnu... paaloli chitharunnu...\n\nMulchedi thalappilum punjiri viriyarundaa-\ncheru poonthoppile panineeruraykunnu...\n\nMadhuvin mathaal paari moolunnu madhupangal\nMadhuramijjeevitham cheruthanennakilum...\n\nAarellen gurunathar, aarellen gurunathar\npaarthilellamenne padippikkunnundentho...",
      "defaultTitle" : false,
      "id" : "-KbAWDUBG2ihMMCo78vC",
      "languages" : {
        "-KSfT0hzN_MFlQNbdUkw" : true
      },
      "likes" : {
        "5ScOhPfV56fPBAUjN99a4akA4ut1" : true,
        "aVoO5h4MVVZb3apk4Df5LSEjL0h1" : true,
        "o28j4IVcDGZvujFTjN0KY5gFQE73" : true,
        "o8FpMvy741aVGo4NuvvszzPFXga2" : true
      },
      "likesCount" : 4,
      "modifiedTime" : 1526897061652,
      "mood" : {
        "-KR7vF88MdJlOg6A_3ZG" : true
      },
      "poemId" : "-KbAWDUBG2ihMMCo78vC",
      "tags" : {
        "-KbTdOwAu2z9z5WBZGxc" : true,
        "-LCbZpU5XDWQgn9_qHB_" : true
      },
      "title" : "Ente Vidhyalayam",
      "userId" : "o28j4IVcDGZvujFTjN0KY5gFQE73",
      "userName" : "Muammil K A"
    },
    "-Kbj8IYE60T97iq7M3FW" : {
      "author" : "-Kbj8G5OFEtFp-5ahK5w",
      "body" : "All is abolished but the mute Alone.\nThe mind from thought released, the heart from grief,\nGrow inexistent now beyond belief;\nThere is no I, no Nature, known-unknown.\nThe city, a shadow picture without tone,\nFloats, quivers unreal; forms without relief\nFlow, a cinema’s vacant shapes; like a reef\nFoundering in shoreless gulfs the world is done.\n\nOnly the illimitable Permanent\nIs here. A Peace stupendous, featureless, still.\nReplaces all, – what once was I, in It\nA silent unnamed emptiness content\nEither to fade in the Unknowable\nOr thrill with the luminous seas of the Infinite.",
      "deepLink" : "https://tu64d.app.goo.gl/f6DI",
      "languages" : {
        "-KSfSFsCV3ODqley54dJ" : true
      },
      "likesCount" : 0,
      "modifiedTime" : 1485775911547,
      "poemId" : "-Kbj8IYE60T97iq7M3FW",
      "title" : "Nirvana",
      "userId" : "o28j4IVcDGZvujFTjN0KY5gFQE73",
      "userName" : "Muammil K A"
    },
    "-Kbj8dpIEX3InogLxVNM" : {
      "author" : "-Kbj8G5OFEtFp-5ahK5w",
      "body" : "Mystic Miracle, daughter of Delight,\nLife, thou ecstasy,\nLet the radius of thy flight\nBe eternity.\n\nOn thy wings thou bearest high\nGlory and disdain,\nGodhead and mortality,\nEcstasy and pain.\n\nTake me in thy wild embrace\nWithout weak reserve\nBody dire and unveiled face;\nFaint not, Life, nor swerve.\n\nAll thy bliss I would explore,\nAll thy tyranny.\nCruel like the lion’s roar,\nSweet like springtide be.\n\nLike a Titan I would take,\nLike a God enjoy,\nLike a man contend and make,\nRevel like a boy.\n\nMore I will not ask of thee,\nNor my fate would choose;\nKing or conquered let me be,\nLive or lose.\n\nEven in rags I am a god;\nFallen, I am divine;\nHigh I triumph when down-trod,\nLong I live when slain.",
      "defaultTitle" : false,
      "id" : "-Kbj8dpIEX3InogLxVNM",
      "languages" : {
        "-KSfSFsCV3ODqley54dJ" : true
      },
      "likesCount" : 0,
      "modifiedTime" : 1526896990625,
      "poemId" : "-Kbj8dpIEX3InogLxVNM",
      "title" : "Life",
      "userId" : "o28j4IVcDGZvujFTjN0KY5gFQE73",
      "userName" : "Muammil K A"
    },
    "-Kbj9WFMp-rNThrF5VL-" : {
      "author" : "-Kbj9UZwV1upl-mw8o77",
      "body" : "The day I've died, my pall is moving on -\nBut do not think my heart is still on earth!\nDon't weep and pity me: \"Oh woe, how awful!\"\nYou fall in devil's snare - woe, that is awful!\nDon't cry \"Woe, parted!\" at my burial -\nFor me this is the time of joyful meeting!\nDon't say \"Farewell!\" when I'm put in the grave -\nA curtin is it for eternal bliss.\nYou saw \"descending\" - now look at the rising!\nIs setting dangerous for sun and moon?\nTo you it looks like setting, but it's rising;\nThe coffin seems a jail, yet it means freedom.\nWhich seed fell in the earth that did not grow there?\nWhy do you doubt the fate of human seed?\nWhat bucket came not filled from out the cistern?\nWhy should the Yusaf \"Soul\" then fear this well?\nClose here your mouth and open it on that side.\nSo that your hymns may sound in Where-no-place!",
      "defaultTitle" : false,
      "id" : "-Kbj9WFMp-rNThrF5VL-",
      "languages" : {
        "-KSfSFsCV3ODqley54dJ" : true
      },
      "likes" : {
        "HPQrKA3rw9f5E2f8gdHGkFFFtWJ3" : true
      },
      "likesCount" : 1,
      "modifiedTime" : 1485776229704,
      "poemId" : "-Kbj9WFMp-rNThrF5VL-",
      "title" : "Wedding Night",
      "userId" : "o28j4IVcDGZvujFTjN0KY5gFQE73",
      "userName" : "Muammil K A"
    },
    "-Kbj9mxz8Mm3IMj0E0fA" : {
      "author" : "-Kbj9UZwV1upl-mw8o77",
      "body" : "Why cling to one life\ntill it is soiled and ragged?\n\nThe sun dies and dies\nsquandering a hundred lived\nevery instant\n\nGod has decreed life for you\nand He will give\nanother and another and another",
      "defaultTitle" : false,
      "id" : "-Kbj9mxz8Mm3IMj0E0fA",
      "likesCount" : 0,
      "modifiedTime" : 1485776302266,
      "poemId" : "-Kbj9mxz8Mm3IMj0E0fA",
      "title" : "Why Cling",
      "userId" : "o28j4IVcDGZvujFTjN0KY5gFQE73",
      "userName" : "Muammil K A"
    },
    "-Kbj9ywlMmBSfwFQbZrM" : {
      "author" : "-Kbj9UZwV1upl-mw8o77",
      "body" : "Everything other than love for the most beautiful God\n\n     though it be sugar- eating. \n\n    What is agony of the spirit? \n\n    To advance toward death without seizing \n\n    hold of the Water of Life.",
      "deepLink" : "https://tu64d.app.goo.gl/H08n",
      "likesCount" : 0,
      "modifiedTime" : 1485776351417,
      "poemId" : "-Kbj9ywlMmBSfwFQbZrM",
      "title" : "Love Is Water of Life",
      "userId" : "o28j4IVcDGZvujFTjN0KY5gFQE73",
      "userName" : "Muammil K A"
    },
    "-KbjAdiotGShi-xaJXyG" : {
      "author" : "-KbjAdGRFigcmoGJ5MSA",
      "body" : "I am full of love tonight\nCome look into my eyes, and let’s go off\nSailing, my dear, on a long ocean ride.\n\nThis world will not touch you,\nI will keep you snug upon my seat.\n\nLet’s plot\nTo make the moon jealous\nWith a radiance leaping from your cheek.\n\nI will be full of love tonight,\nCome look into these ancient eyes!\n\nAnd let’s go off sailing, my dear,\nWith our spirits intertwined.\n\nYour body is just an old sandbar\nIn a speeding hourglass of time.\n\nLove will turn the mouth of sorrow\nRight side up.\n\nLet your heart commence its destined\nLaughing chime!\n\nHafiz will be brimful of love tonight,\nWhy ever be shy?\n\nCome look into the playful eyes of my verse,\nThey are eternally branded,\nBranded with\nThe Sun!",
      "deepLink" : "https://tu64d.app.goo.gl/KSYE",
      "likesCount" : 0,
      "modifiedTime" : 1485776527551,
      "poemId" : "-KbjAdiotGShi-xaJXyG",
      "title" : "I am full of love tonight",
      "userId" : "o28j4IVcDGZvujFTjN0KY5gFQE73",
      "userName" : "Muammil K A"
    },
    "-KbjAljRPMpED7HIZbd6" : {
      "author" : "-KbjAdGRFigcmoGJ5MSA",
      "body" : "The fire\nHas roared near you.\n\nThe most intimate parts of your body\nGot scorched,\nSo\nOf course you have run\nFrom your marriages into a\nDifferent House\nThat will shelter you\nFrom embracing every aspect of Him.\n\nGod has\nRoared near us.\nThe lashes on our heart’s eye got burnt.\n\nOf course we have\nRun away\nFrom His\nSweet flaming breath\nThat proposed an annihilation\n\nToo real,\nToo\nBeautiful.",
      "deepLink" : "https://tu64d.app.goo.gl/LZFs",
      "likesCount" : 0,
      "modifiedTime" : 1485776559591,
      "poemId" : "-KbjAljRPMpED7HIZbd6",
      "title" : "Too beautiful",
      "userId" : "o28j4IVcDGZvujFTjN0KY5gFQE73",
      "userName" : "Muammil K A"
    },
    "-KbjAtNI6JHpenfKgXzw" : {
      "author" : "-KbjAdGRFigcmoGJ5MSA",
      "body" : "Don’t Surrender\nYour loneliness so quickly.\n\nLet it cut more\nDeep.\n\nLet it ferment and season you\nAs few human\nOr even divine ingredients can.\n\nSomething missing in my heart tonight\nHas made my eyes so soft,\nMy voice so\nTender,\nMy need of God\nAbsolutely\nClear",
      "likes" : {
        "HPQrKA3rw9f5E2f8gdHGkFFFtWJ3" : true
      },
      "likesCount" : 1,
      "modifiedTime" : 1526711123200,
      "poemId" : "-KbjAtNI6JHpenfKgXzw",
      "title" : "My eyes so soft",
      "userId" : "o28j4IVcDGZvujFTjN0KY5gFQE73",
      "userName" : "Muammil K A"
    },
    "-KbjB2KbAGjuMrQqMV_n" : {
      "author" : "-KbjAdGRFigcmoGJ5MSA",
      "body" : "You\nLeave\nOur company when you speak\nOf shame\nAnd this makes\nEveryone in the Tavern sad.\n\nStay with us\nAs we do the hardest work of rarely\nLaying down\nThat pick and\nShovel\n\nThat will keep\nRevealing our deeper kinship\nWith\nGod,\nThat will keep revealing\nOur own divine\nWorth.\n\nYou leave the company of the\nBeloved’s friends\nWhenever you speak of\nGuilt,\nAnd this makes\nEveryone in the Tavern\nVery sad.\n\nStay with us tonight\nAs we weave love\nAnd reveal ourselves,\nReveal ourselves\nAs His precious\nGarments",
      "defaultTitle" : false,
      "id" : "-KbjB2KbAGjuMrQqMV_n",
      "languages" : {
        "-KSfSFsCV3ODqley54dJ" : true
      },
      "likes" : {
        "0iBSls6zdacQmuN2DBAO6FQMK2i2" : true,
        "5ScOhPfV56fPBAUjN99a4akA4ut1" : true,
        "aVoO5h4MVVZb3apk4Df5LSEjL0h1" : true,
        "aevxesLOS5UhQs5V4vOqLxajtOt1" : true
      },
      "likesCount" : 4,
      "modifiedTime" : 1526711101298,
      "poemId" : "-KbjB2KbAGjuMrQqMV_n",
      "title" : "Stay with us",
      "userId" : "o28j4IVcDGZvujFTjN0KY5gFQE73",
      "userName" : "Muammil K A"
    },
    "-KcStQBWcQ_nNeB8qdPE" : {
      "author" : "-KcStPZIwJqBpumiEHzu",
      "body" : "Humpty dumpty sat on a wall \nHumpty dumpty had a great fall",
      "defaultTitle" : false,
      "id" : "-KcStQBWcQ_nNeB8qdPE",
      "languages" : {
        "-KSfSFsCV3ODqley54dJ" : true
      },
      "likes" : {
        "0iBSls6zdacQmuN2DBAO6FQMK2i2" : true,
        "FjtbQ0uEu7d27LzRE6b24jqezhH2" : true
      },
      "likesCount" : 2,
      "modifiedTime" : 1486560277745,
      "mood" : {
        "-KR7nqJhs-JObcKvCRV2" : true,
        "-KR7vF88MdJlOg6A_3ZG" : true
      },
      "poemId" : "-KcStQBWcQ_nNeB8qdPE",
      "tags" : {
        "-KcStP_7c9kcZDea5ylg" : true
      },
      "title" : "Hello world",
      "userId" : "0iBSls6zdacQmuN2DBAO6FQMK2i2",
      "userName" : "Gagandeep Singh"
    },
    "-Kd_cZwXleMY1nXJTIr4" : {
      "author" : "-KOslJKHcGRjQA7eg3cY",
      "body" : "I come with no wrapping or pretty pink bows.\nI am who I am from my head to my toes.\nI tend to get loud when speaking my mind.\nEven a little crazy some of the time.\nI'm not a size 5 and don't care to be.\nYou can be you and I can be me.\nI try to stay strong when pain knocks me down.\nAnd the times that I cry is when no ones around.\nTo error is human or so that's what they say.\nWell tell me who's perfect anyway...",
      "likes" : {
        "0iBSls6zdacQmuN2DBAO6FQMK2i2" : true,
        "HPQrKA3rw9f5E2f8gdHGkFFFtWJ3" : true,
        "aevxesLOS5UhQs5V4vOqLxajtOt1" : true
      },
      "likesCount" : 3,
      "modifiedTime" : 1526711221053,
      "poemId" : "-Kd_cZwXleMY1nXJTIr4",
      "title" : "I come with no ...",
      "userId" : "5ScOhPfV56fPBAUjN99a4akA4ut1",
      "userName" : "Abdul Khader K A"
    },
    "-KflFs-Eb0TSqSzoKGNx" : {
      "author" : "-KOslJKHcGRjQA7eg3cY",
      "body" : "Humpty dumpty sat on a wall of the certificates about the project work at Peel in our resume and cover letter and resume for your time",
      "defaultTitle" : true,
      "id" : "-KflFs-Eb0TSqSzoKGNx",
      "likes" : {
        "HPQrKA3rw9f5E2f8gdHGkFFFtWJ3" : true
      },
      "likesCount" : 1,
      "modifiedTime" : 1490106429392,
      "poemId" : "-KflFs-Eb0TSqSzoKGNx",
      "title" : "Humpty dumpty s...",
      "userId" : "0iBSls6zdacQmuN2DBAO6FQMK2i2",
      "userName" : "Gagandeep Singh"
    },
    "-KflPw5N9EkoMUmFqJGk" : {
      "author" : "-KOslJKHcGRjQA7eg3cY",
      "body" : "Khelan kyun na jaaye\nTu hori re rasiya (x2)\n\nPuchhe hain tohe sari guiya\nKahaan hai Badri ki dulhania...\n\nKurti pe teri malun gulaal\nRang bata blue ya laal\nAir mein tere udte baal\nAaja rang doon dono gaal...\n\nAre sa ra ra ra.. (x3)\nKabira sa ra ra ra..\n\nBaby ke dekhe jhoomke....\nLaga de chaar thumke\nChhichore nache jamke re\n\nUP mein din dahade\nWindow aur chat pe taade\nHum dekhe aankhen faade re..",
      "contributedUserId" : "aevxesLOS5UhQs5V4vOqLxajtOt1",
      "contributedUsers" : {
        "aevxesLOS5UhQs5V4vOqLxajtOt1" : true
      },
      "deepLink" : "https://tu64d.app.goo.gl/IPzO",
      "defaultTitle" : true,
      "likes" : {
        "5ScOhPfV56fPBAUjN99a4akA4ut1" : true
      },
      "likesCount" : 1,
      "modifiedTime" : 1490619806684,
      "poemId" : "-KflPw5N9EkoMUmFqJGk",
      "title" : "Khelan kyun na ...",
      "userId" : "erFBpFk99bauW5f83oJZQrlelst2",
      "userName" : "Sarath Prakash"
    },
    "-KgNd6iph3X0oheVwtK-" : {
      "author" : "-KOslJKHcGRjQA7eg3cY",
      "body" : "Rahegaa ishक़ teraa khaak men milaake mujhe Huye hain ibtidaa men rnj intihaa ke mujhe A a bhi jaa Raat dhalane lagi chaaand chhupane chalaa Teri yaad men bekhabar shamaa ki tarah raatabhar Jali araज़u dil jalaa, a a bhi jaa Uफ़aक़ par khadi hai sahar, aandheraa hai dil men idhar Wahi roज़ kaa silasilaa, a a bhi jaa Sitaaron ne muanh ferakar kahaa alawidaa hamasafar Chalaa kaarawaaan ab chalaa, a a bhi jaa",
      "deepLink" : "https://tu64d.app.goo.gl/Qxyr",
      "likesCount" : 0,
      "modifiedTime" : 1490767084969,
      "poemId" : "-KgNd6iph3X0oheVwtK-",
      "title" : "Rahegaa ishक़ te...",
      "userId" : "aevxesLOS5UhQs5V4vOqLxajtOt1",
      "userName" : "Sarath prakash m.v"
    },
    "-KgOu6T2hrLZuk_y73un" : {
      "author" : "-KOslJKHcGRjQA7eg3cY",
      "body" : "Kisi najar ko teraa intajaar aj bhi hai Kahaaan ho tum ke ye dil bekaraar aj bhi hai Wo waadiyaaan, wo faज़aayen ke ham mile the jahaaan Meri wafaa kaa wahi par maज़aar aj bhi hai N jaane dekh ke kyon unako ye hua ehasaas Ke mere dil pe unhen ikhtiyaar aj bhi hai Wo pyaar jis ke lie hamane chhod di duniyaa Wafaa ki raah men ghaayal wo pyaar aj bhi hai Yakin nahin hai magar aj bhi ye lagataa hai Meri talaash men shaayad bahaar aj bhi hai N puchh kitane mohabbat ke ज़akhm khaaye hain Ke jinako soch ke dil sogawaar aj bhi hai",
      "deepLink" : "https://tu64d.app.goo.gl/xFFq",
      "likesCount" : 0,
      "modifiedTime" : 1490788317624,
      "poemId" : "-KgOu6T2hrLZuk_y73un",
      "title" : "Kisi najar ko t...",
      "userId" : "aevxesLOS5UhQs5V4vOqLxajtOt1",
      "userName" : "Sarath prakash m.v"
    },
    "-KgOyV5LlVUW51OXPfFC" : {
      "author" : "-KOslJKHcGRjQA7eg3cY",
      "body" : "Hajaaron khwaahishen aisi ki har khwaahish pe dam nikale Bahut nikale mere aramaan lekin fir bhi kam nikale Mohabbat men nahin hain frk jine aur marane kaa Usi ko dekh kar jite hain jis kaafir pe dam nikale Dare kyon meraa kaatil kyaa rahegaa usaki gardan par Wo khun, jo chashm-e-tar se umr bhar yuan dam-b-dam nikale Nikalanaa khuld se adam kaa sunate aye hain lekin Bahut beabaru hokar tere kuche se ham nikale Hui jinase tawakko khastagi ki daad paane ki Wo hamase bhi jyaadaa khst-e-tegh-e-sitam nikale Khudaa ke waaste paradaa naa kaabe se uthhaa jaalim Kahin aisaa naa ho yaaan bhi wahi kaafir sanam nikale Kahaaan mayakhaane kaa darawaajaa 'agaaliba' aur kahaaan waaij Par itanaa jaanate hain kal wo jaataa thaa ke ham nikale",
      "deepLink" : "https://tu64d.app.goo.gl/CWA3",
      "likesCount" : 0,
      "modifiedTime" : 1490789466941,
      "poemId" : "-KgOyV5LlVUW51OXPfFC",
      "title" : "Hajaaron khwaah...",
      "userId" : "aevxesLOS5UhQs5V4vOqLxajtOt1",
      "userName" : "Sarath prakash m.v"
    },
    "-KgOz-xliwRA6ofsaYx7" : {
      "author" : "-KOslJKHcGRjQA7eg3cY",
      "body" : "Hamane dekhi hai un aankhon ki mahakati khushabu Haath se chhu ke ise rishto kaa iljaam naa do Sirf ehasaas hai ye ruh se mahasus karo Pyaar ko pyaar hi rahane do koi naam naa do Pyaar koi bol nahin, pyaar awaaj nahin Ek khaamoshi hai sunati hai kahaa karati hai N ye bujhati hai, n rukati hai, n thhahari hai kahin Nur ki buand hai, sadiyon se bahaa karati hai Muskaraahat si khili rahati hai aankhon men kahin Aur palako pe ujaale se jhuke rahate hain Honthh kuchh kahate nahin, kaaanpate hothhon pe magar Kitane khaamosh se afasaane ruke rahate hain",
      "deepLink" : "https://tu64d.app.goo.gl/L7Zs",
      "likesCount" : 0,
      "modifiedTime" : 1490789601496,
      "poemId" : "-KgOz-xliwRA6ofsaYx7",
      "title" : "Hamane dekhi ha...",
      "userId" : "aevxesLOS5UhQs5V4vOqLxajtOt1",
      "userName" : "Sarath prakash m.v"
    },
    "-KgP0Fand-KiKw2mRnzG" : {
      "author" : "-KOslJKHcGRjQA7eg3cY",
      "body" : "Tumako dekhaa to ye khayaal ayaa Jindagi dhup, tum ghanaa saayaa Aj fir dil ne ek tamannaa ki Aj fir dil ko ham ne samajhaayaa Tum chale jaaoge to sochenge Hamane kyaa khoyaa hamane kyaa paayaa Ham jise gunagunaa nahin sakate Wakt ne aisaa git kyon gaayaa",
      "deepLink" : "https://tu64d.app.goo.gl/Ysdo",
      "likesCount" : 0,
      "modifiedTime" : 1490790189883,
      "poemId" : "-KgP0Fand-KiKw2mRnzG",
      "title" : "Tumako dekhaa t...",
      "userId" : "aevxesLOS5UhQs5V4vOqLxajtOt1",
      "userName" : "Sarath prakash m.v"
    },
    "-KgP1s_1NypzBXVKFLn0" : {
      "author" : "-KOslJKHcGRjQA7eg3cY",
      "body" : "Tujh se naaraaj nahin jindagi, hairaan huan main Tere maasum sawaalon se pareshaan huan main Jine ke lie sochaa hi nahin, dard snbhaalane honge Muskuraaye to, muskuraane ke karj utaarane honge Muskuraau kabhi to lagataa hai, jaise hothhon pe karj rakhaa hai Aj agar bhar ayi hai, bunde baras jaayegi Kal kyaa pataa in ke lie, aankhe taras jaayegi Jaane kab gum hua, kahaaan khoyaa, ek aansu",
      "deepLink" : "https://tu64d.app.goo.gl/6TKU",
      "likesCount" : 0,
      "modifiedTime" : 1490790615687,
      "poemId" : "-KgP1s_1NypzBXVKFLn0",
      "title" : "Tujh se naaraaj...",
      "userId" : "aevxesLOS5UhQs5V4vOqLxajtOt1",
      "userName" : "Sarath prakash m.v"
    },
    "-KgP7Cgezlc5QxIWwuGn" : {
      "author" : "-KOslJKHcGRjQA7eg3cY",
      "body" : "Dhire dhire se meri jindagi men anaa Dhire dhire se dil ko churaanaa Tum se pyaar hamen hain kitanaa jaan-e-jaanaa Tum se milakar tumako hai bataanaa Jab se tujhe dekhaa, dil ko kahi araam nahin Mere hothhon pe ek tere siwaa koi naam nahin Apanaa bhi haal tumhaare jaisaa hai saajan Bas yaad tujhe karate hain aur koi kaam nahin Ban gayaa huan main, teraa diwaanaa Dhire dhire se ... Tune bhi aksar mujhako jagaayaa raaton men Aur nind churaayi mithhi mithhi baaton men Tune bhi beshak mujhako kitanaa tadpaayaa Fir bhi teri har ek adaa pe pyaar ayaa A jaa a jaa, ab kaisaa sharamaanaa Dhire dhire se ...",
      "deepLink" : "https://tu64d.app.goo.gl/e8Ml",
      "likesCount" : 0,
      "modifiedTime" : 1490792013034,
      "poemId" : "-KgP7Cgezlc5QxIWwuGn",
      "title" : "Dhire dhire se ...",
      "userId" : "aevxesLOS5UhQs5V4vOqLxajtOt1",
      "userName" : "Sarath prakash m.v"
    },
    "-KgPAF4lHxURBV_-CJpc" : {
      "author" : "-KOslJKHcGRjQA7eg3cY",
      "body" : "Ye moh moh ke dhaage teri uangaliyon se jaa ulajhe Koi toh toh naa laage kis tarah girah ye sulajhe Hai rom rom ek taaraa jo baadalon men se guज़are Tu hogaa jaraa paagal tune mujhako hai chunaa Kaise tu ne anakahaa, tune anakahaa sab sunaa Tu din saa hai main raat, anaa dono mil jaae shaamon ki tarah Ke teri jhuthhi baaten main saari maan luan Aankhon se tere sach sabhi sab kuchh abhi jaan luan Tej hai dhaaraa bahate se ham awaaraa a tham ke saaanse le yahaaan",
      "deepLink" : "https://tu64d.app.goo.gl/lKzs",
      "likesCount" : 0,
      "modifiedTime" : 1490792809248,
      "poemId" : "-KgPAF4lHxURBV_-CJpc",
      "title" : "Ye moh moh ke d...",
      "userId" : "aevxesLOS5UhQs5V4vOqLxajtOt1",
      "userName" : "Sarath prakash m.v"
    },
    "-Kgy5a3n8nlczJRhlCFH" : {
      "author" : "-KOslJKHcGRjQA7eg3cY",
      "body" : "Andaaz tere baake\nNa jaanu hai kahan ke\n\nAndaaz tere baake\nNa jaanu hai kahan ke\nAaj bhi nayi lage teri har adaa\nChalka chalka jo husn tera\n\nHalka halka hai mujhe tera nasha\nHalka halka hai mujhe tera nasha\n\nHo.. tum jo kehti ho\nHo meri tum sirf meri ho\nToh mera mann jhoom jaata hai\nMera mann jhoom jhoom jaata hai",
      "deepLink" : "https://tu64d.app.goo.gl/8bQb",
      "likesCount" : 0,
      "modifiedTime" : 1491395568405,
      "poemId" : "-Kgy5a3n8nlczJRhlCFH",
      "title" : "Andaaz tere baa...",
      "userId" : "aevxesLOS5UhQs5V4vOqLxajtOt1",
      "userName" : "Sarath prakash m.v"
    },
    "-KgyBh3BThWCpHHEfJHd" : {
      "author" : "-KOslJKHcGRjQA7eg3cY",
      "body" : "Jo teri khatir tadpe pehle se hi\nKya usse tadpana o zaalima, o zaalima\nJo tere ishq mein behka pehle se hi\nKya usse behkana o zaalima, o zaalima (x2)\n\nAankhen marhaba, baatein marhaba\nMain sau martaba deewana hua\nMera na raha jab se dil mera\nTere husn ka nishana hua\n\nJiski har dhadkan tu ho aise\nDil ko kya dhadkana\nO zaalima o zalima\n\nJo teri khatir tadpe pehle se hi....",
      "deepLink" : "https://tu64d.app.goo.gl/T5FR",
      "likesCount" : 0,
      "modifiedTime" : 1491397170794,
      "poemId" : "-KgyBh3BThWCpHHEfJHd",
      "title" : "Jo teri khatir ...",
      "userId" : "aevxesLOS5UhQs5V4vOqLxajtOt1",
      "userName" : "Sarath prakash m.v"
    },
    "-KgyEoy6ZlY0sgXRadIo" : {
      "author" : "-KOslJKHcGRjQA7eg3cY",
      "body" : "Zara dhyan se suno\nEnu naam che Raees\nAkhi duniya mein yeh ek single piece\n\nArre pyar se pukaaro toh\nJaan bhi lutaa de\nPar shaanpatti thoka toh\nWoh sabse tedhi cheez\n\nRaees, Raees, Raees, Raees (x2)\n\nHelo halaro hulle hulare ho (x4)\n\nMiyan bhai ka hai daring\nAur hai baniye ka dimaag\nBheje mein hai total thandak\nIske seene mein hain aag",
      "deepLink" : "https://tu64d.app.goo.gl/g1hA",
      "likesCount" : 0,
      "modifiedTime" : 1491397989314,
      "poemId" : "-KgyEoy6ZlY0sgXRadIo",
      "title" : "Zara dhyan se s...",
      "userId" : "aevxesLOS5UhQs5V4vOqLxajtOt1",
      "userName" : "Sarath prakash m.v"
    },
    "-KgyRPTwuZTst3V7qMz4" : {
      "author" : "-KOslJKHcGRjQA7eg3cY",
      "body" : "Aaj idhar aaj udhar\nZindagi hai ek safar\nKaanch ki botal mein basse\nMere khwabon ka shehar\n\nThodi kyu hai thoda safar\nThoda duwaon ka asar\nAur behisab jigar\nPhir kis baat ka darr\n\nFarzi duniya hai farzi\nTedhi jab kardi\nUngi toh seedhi chali\nMarzi apni marzi\nJab hoti kardi\nKismat gale lagi",
      "deepLink" : "https://tu64d.app.goo.gl/w3mf",
      "likesCount" : 0,
      "modifiedTime" : 1491401289581,
      "poemId" : "-KgyRPTwuZTst3V7qMz4",
      "title" : "Aaj idhar aaj u...",
      "userId" : "aevxesLOS5UhQs5V4vOqLxajtOt1",
      "userName" : "Sarath prakash m.v"
    },
    "-Kh2Waqk98_6KbKzZfGJ" : {
      "author" : "-KOslJKHcGRjQA7eg3cY",
      "body" : "Dum dum udti hai dua..\n\nDum dum udti hai dua\nSau pankh laga tere naam ke (x2)\n\nMera dil faqeera ho gaya\nMera dil faqeera ho gaya\nChal diya woh tere dhaam pe\n\nDum dum udti hai dua\nSau pankh laga tere naam ke (x2)",
      "deepLink" : "https://tu64d.app.goo.gl/4qM9",
      "likesCount" : 0,
      "modifiedTime" : 1491486535565,
      "poemId" : "-Kh2Waqk98_6KbKzZfGJ",
      "title" : "Dum dum udti ha...",
      "userId" : "aevxesLOS5UhQs5V4vOqLxajtOt1",
      "userName" : "Sarath prakash m.v"
    },
    "-Kh6KVVVagyVdwlhow6j" : {
      "author" : "-KOslJKHcGRjQA7eg3cY",
      "body" : "I the walking (walk walk walk)\nHe the talking (talk talk talk) (x2)\n\nMain boli good good morning\nGood morning, good morning\nAji haath pe rakhdi usne ring\nRing ring ring, golden ring\n\nArre round round, haan round round\nMain chakkar kha gayi tezi mein\nNo no sorry sorry karte karte\nIshq kiya angrezi mein",
      "deepLink" : "https://tu64d.app.goo.gl/sqa0",
      "defaultTitle" : true,
      "likes" : {
        "erFBpFk99bauW5f83oJZQrlelst2" : true
      },
      "likesCount" : 1,
      "modifiedTime" : 1491550473488,
      "poemId" : "-Kh6KVVVagyVdwlhow6j",
      "title" : "I the walking (...",
      "userId" : "aevxesLOS5UhQs5V4vOqLxajtOt1",
      "userName" : "Sarath prakash m.v"
    },
    "-Kh6Lsig4M7xqrpKvGKI" : {
      "author" : "-KOslJKHcGRjQA7eg3cY",
      "body" : "Yeh ishq hai, yeh ishq hai (x2)\n\nSufi ke sulfe ki\nLau uth ke kehti hai\nAatish ye bujhke bhi\nJalti hi rehti hai\n\nYeh ishq hai, ye ishq hai (x2)\n\nSufi ke sulfe ki\nLau uth ke kehti hai\nAatish ye bujhke bhi\nJalti hi rehti hai\nYeh ishq hai, yeh ishq hai",
      "deepLink" : "https://tu64d.app.goo.gl/cCXZ",
      "likesCount" : 0,
      "modifiedTime" : 1491550834071,
      "poemId" : "-Kh6Lsig4M7xqrpKvGKI",
      "title" : "Yeh ishq hai, y...",
      "userId" : "aevxesLOS5UhQs5V4vOqLxajtOt1",
      "userName" : "Sarath prakash m.v"
    },
    "-Kh6M6lNxU6BAki_3Q2A" : {
      "author" : "-KOslJKHcGRjQA7eg3cY",
      "body" : "Alvida alvida toh nahi\nAlvida alvida toh nahi\nJism se jaan juda toh nahi\n\nAlvida alvida toh nahi\nJism se jaan juda toh nahi\n\nRooh mein beh raha hai tu (x2)\n\nEk hi tu khuda toh nahi\nAlvida alvida toh nahi..",
      "deepLink" : "https://tu64d.app.goo.gl/ROCw",
      "likesCount" : 0,
      "modifiedTime" : 1491550895511,
      "poemId" : "-Kh6M6lNxU6BAki_3Q2A",
      "title" : "Alvida alvida t...",
      "userId" : "aevxesLOS5UhQs5V4vOqLxajtOt1",
      "userName" : "Sarath prakash m.v"
    },
    "-Kh6OVtwi7hMhc_Rl3Wt" : {
      "author" : "-KOslJKHcGRjQA7eg3cY",
      "body" : "Dil ye nikamma baaz na aaye\nUlte sulte pench ladaye (x2)\n\nAjab gazab hai iske tevar\nZara zara si baat lekar\nKare tamashe macha de ye halla..\n\nUff yeh Noor.. wallah\nUff yeh Noor.. wallah",
      "deepLink" : "https://tu64d.app.goo.gl/qQAy",
      "likesCount" : 0,
      "modifiedTime" : 1491551525221,
      "poemId" : "-Kh6OVtwi7hMhc_Rl3Wt",
      "title" : "Dil ye nikamma ...",
      "userId" : "aevxesLOS5UhQs5V4vOqLxajtOt1",
      "userName" : "Sarath prakash m.v"
    },
    "-Kh6YaBHRb_A-84JUZN9" : {
      "author" : "-KOslJKHcGRjQA7eg3cY",
      "body" : "Move your lakk baby\nMove your lakk baby\nSaari raat se morning tak baby (x3)\n\nMove your lakk baby\nMove your lakk baby\nSaari raat se morning\n\nMove your lakk baby\nMove your lakk baby\nSaari raat se morning tak baby (x2)",
      "deepLink" : "https://tu64d.app.goo.gl/n1Nf",
      "likesCount" : 0,
      "modifiedTime" : 1491554165836,
      "poemId" : "-Kh6YaBHRb_A-84JUZN9",
      "title" : "Move your lakk ...",
      "userId" : "aevxesLOS5UhQs5V4vOqLxajtOt1",
      "userName" : "Sarath prakash m.v"
    },
    "-Kh6YsHljFUoeygbdcRP" : {
      "author" : "-KOslJKHcGRjQA7eg3cY",
      "body" : "Tere ishq da nasha chadhiya ve\nMera dil tujhpe hi addiya ve (x2)\n\nHaal hua behaal hua\nMera haal hua behal (x2)\n\nGulabi! (Gulabi)\n\nGulabi aankhen jo teri dekhi\nSharabi yeh dil ho gaya (gulabi)\nSambhalo mujhko o mere yaaro\nSambhalna mushkil ho gaya",
      "deepLink" : "https://tu64d.app.goo.gl/7bEB",
      "likesCount" : 0,
      "modifiedTime" : 1491554239971,
      "poemId" : "-Kh6YsHljFUoeygbdcRP",
      "title" : "Tere ishq da na...",
      "userId" : "aevxesLOS5UhQs5V4vOqLxajtOt1",
      "userName" : "Sarath prakash m.v"
    },
    "-Kh6_w9nLuXFvm89ZHSv" : {
      "author" : "-KOslJKHcGRjQA7eg3cY",
      "body" : "Badla nahi hain kuch bhi\nYoonhi khamakha\nKoi toh hai wajah suno\nTehri hoon main toh chalta jaaye rasta\nJaadu hai har jagah suno\n\nTu jo mere saath hai\nPal pal nayi baat hai\nKhwaabon mein hai tu mere\nYa sach mein hai saamne chehra tera..",
      "deepLink" : "https://tu64d.app.goo.gl/ZMQK",
      "likesCount" : 0,
      "modifiedTime" : 1491554780163,
      "poemId" : "-Kh6_w9nLuXFvm89ZHSv",
      "title" : "Badla nahi hain...",
      "userId" : "aevxesLOS5UhQs5V4vOqLxajtOt1",
      "userName" : "Sarath prakash m.v"
    },
    "-Kh71s3Fq7m125v-5Ou3" : {
      "author" : "-KOslJKHcGRjQA7eg3cY",
      "body" : "Bhavara\nRe ga re ga re ga re ga pa ma ga re\n\nBhavara.. bhavara\nBhavara.. bhavara\nSunn sunn bhavara\nO sunn sunn bhavara\nKaisi baatein banaye\n\nO sunn sunn bhavara\nSunn sunn bhavara\nSunn sunn bhavara\nKaisi baatein banaye\nKaisi baatein banaye banaye re\nSunn sunn bhawara",
      "deepLink" : "https://tu64d.app.goo.gl/oO2B",
      "likesCount" : 0,
      "modifiedTime" : 1491562365509,
      "poemId" : "-Kh71s3Fq7m125v-5Ou3",
      "title" : "Bhavara\nRe ga r...",
      "userId" : "aevxesLOS5UhQs5V4vOqLxajtOt1",
      "userName" : "Sarath prakash m.v"
    },
    "-Kh724A84aUN4sR62Uir" : {
      "author" : "-KOslJKHcGRjQA7eg3cY",
      "body" : "Maula wa sallim wa sallim da'iman abadan\nAla habi bika khairil khalqi kullihimi\nMaula wa sallim wa sallim da'iman abadan\nAla habi bika khairil khalqi kullihimi",
      "deepLink" : "https://tu64d.app.goo.gl/NIdW",
      "likesCount" : 0,
      "modifiedTime" : 1491562419397,
      "poemId" : "-Kh724A84aUN4sR62Uir",
      "title" : "Maula wa sallim...",
      "userId" : "aevxesLOS5UhQs5V4vOqLxajtOt1",
      "userName" : "Sarath prakash m.v"
    },
    "-Kh72R2L_MS0AE81n6fq" : {
      "author" : "-KOslJKHcGRjQA7eg3cY",
      "body" : "Jee le zara (x4)\n\nJee lein..\n\nDus din hain dus raatein\nIk lamha sau baatein\nChalte rahe jahaan talak\nRaaste chale hai aur falak",
      "deepLink" : "https://tu64d.app.goo.gl/5Dca",
      "likesCount" : 0,
      "modifiedTime" : 1491562512996,
      "poemId" : "-Kh72R2L_MS0AE81n6fq",
      "title" : "Jee le zara (x4...",
      "userId" : "aevxesLOS5UhQs5V4vOqLxajtOt1",
      "userName" : "Sarath prakash m.v"
    },
    "-Kh7C9CsMN92Z8yiLR5S" : {
      "author" : "-KOslJKHcGRjQA7eg3cY",
      "body" : "Kaara fankaara kab aaye re\nKaara fankaara tarsaaye re\nHo wo.. fankaara..\nKab aaye re.. tarsaaye re..\n\nKabhi kabhi chale goliyan\nDil mein hokar ke thoye thoye (x2)",
      "defaultTitle" : true,
      "id" : "-Kh7C9CsMN92Z8yiLR5S",
      "likes" : {
        "erFBpFk99bauW5f83oJZQrlelst2" : true
      },
      "likesCount" : 1,
      "modifiedTime" : 1491565061369,
      "poemId" : "-Kh7C9CsMN92Z8yiLR5S",
      "title" : "Kaara fankaara ...",
      "userId" : "aevxesLOS5UhQs5V4vOqLxajtOt1",
      "userName" : "Sarath prakash m.v"
    },
    "-Kh7DWVarTSey4V9R39x" : {
      "author" : "-KOslJKHcGRjQA7eg3cY",
      "body" : "Zameen-o-aasmaan ne kya baat ki hai\nGiraake parda koi baat ki hai\nJhuka ke aankh se\nDin mein raat ki hai aa..\n\nSaajan aayo re\nSaawan layo re\n\nSaajan aayo re\nSaawan layo re\nMain poori bheegi re\nMann behkaayo re (x2)\n\nNa-dhir-da-na dhoom ta-na-na (x4)",
      "defaultTitle" : true,
      "id" : "-Kh7DWVarTSey4V9R39x",
      "likes" : {
        "HPQrKA3rw9f5E2f8gdHGkFFFtWJ3" : true,
        "erFBpFk99bauW5f83oJZQrlelst2" : true
      },
      "likesCount" : 2,
      "modifiedTime" : 1491565418876,
      "poemId" : "-Kh7DWVarTSey4V9R39x",
      "title" : "Zameen-o-aasmaa...",
      "userId" : "aevxesLOS5UhQs5V4vOqLxajtOt1",
      "userName" : "Sarath prakash m.v"
    },
    "-Kh7PAk1Dh8MRiDRsVSw" : {
      "author" : "-KOslJKHcGRjQA7eg3cY",
      "body" : "Bhavara\nRe ga re ga re ga re ga pa ma ga re\n\nBhavara.. bhavara\nBhavara.. bhavara\nSunn sunn bhavara\nO sunn sunn bhavara\nKaisi baatein banaye",
      "defaultTitle" : true,
      "id" : "-Kh7PAk1Dh8MRiDRsVSw",
      "likes" : {
        "HPQrKA3rw9f5E2f8gdHGkFFFtWJ3" : true,
        "erFBpFk99bauW5f83oJZQrlelst2" : true
      },
      "likesCount" : 2,
      "modifiedTime" : 1491568476734,
      "poemId" : "-Kh7PAk1Dh8MRiDRsVSw",
      "title" : "Bhavara\nRe ga r...",
      "userId" : "aevxesLOS5UhQs5V4vOqLxajtOt1",
      "userName" : "Sarath prakash m.v"
    },
    "-Kh7s8hXmo29yixvOAuk" : {
      "author" : "-KOslJKHcGRjQA7eg3cY",
      "body" : "Tum pe ye dum nikle\nTum pe ye jawani dheere dheere\nMadham machle\n\nHumma humma\nHumma humma humma\nHey humma humma\nHumma hamma hamma",
      "deepLink" : "https://tu64d.app.goo.gl/AmVI",
      "likes" : {
        "IK1NXXgKhJTzbdbii8GnIBvB8QU2" : true,
        "aVoO5h4MVVZb3apk4Df5LSEjL0h1" : true,
        "erFBpFk99bauW5f83oJZQrlelst2" : true
      },
      "likesCount" : 3,
      "modifiedTime" : 1491576331578,
      "poemId" : "-Kh7s8hXmo29yixvOAuk",
      "title" : "Tum pe ye dum n...",
      "userId" : "aevxesLOS5UhQs5V4vOqLxajtOt1",
      "userName" : "Sarath prakash m.v"
    },
    "-Kh7uwRErAaB9y3sY80b" : {
      "author" : "-KOslJKHcGRjQA7eg3cY",
      "body" : "Ho baby tu hai awesome, awesome\nTera nakhra vi awesome\nChale jehdi chaal vi awesome\nHo baby tu hai awesome, awesome\n\nHair vi brown tere\nAkh vi brown teri\nKaddi jaave mundeyan di jaan ni",
      "defaultTitle" : true,
      "id" : "-Kh7uwRErAaB9y3sY80b",
      "likes" : {
        "HPQrKA3rw9f5E2f8gdHGkFFFtWJ3" : true,
        "IK1NXXgKhJTzbdbii8GnIBvB8QU2" : true,
        "erFBpFk99bauW5f83oJZQrlelst2" : true,
        "tXxLYPCw0Qdh1g76s0U3PQeE1WD3" : true
      },
      "likesCount" : 4,
      "modifiedTime" : 1491577064226,
      "poemId" : "-Kh7uwRErAaB9y3sY80b",
      "title" : "Ho baby tu hai ...",
      "userId" : "aevxesLOS5UhQs5V4vOqLxajtOt1",
      "userName" : "Sarath prakash m.v"
    },
    "-Kh81_82qf6HXlqtzVzX" : {
      "author" : "-KOslJKHcGRjQA7eg3cY",
      "body" : "Sadke sadke jaandi ae mutiyaare ni\n\nKanda chubha tere pair banki ae naare ni (x2)\n\nHo kaun kaddu tera kaand'da mutiyaare ni\nKaun sahu teri peerh banki ae naare ni\nNi addiye kaun sahu teri peerh\nBanki ae naare ni\n\nBabbo kaddo mera kaandra sipahiya ve\nVeer sahu meri peerh\nMain teri mehram naahi\nVe adhiya veer sahu peerh\nMain teri mehram naahin...",
      "defaultTitle" : true,
      "id" : "-Kh81_82qf6HXlqtzVzX",
      "likes" : {
        "5ScOhPfV56fPBAUjN99a4akA4ut1" : true,
        "IK1NXXgKhJTzbdbii8GnIBvB8QU2" : true,
        "aVoO5h4MVVZb3apk4Df5LSEjL0h1" : true,
        "erFBpFk99bauW5f83oJZQrlelst2" : true,
        "tXxLYPCw0Qdh1g76s0U3PQeE1WD3" : true
      },
      "likesCount" : 5,
      "modifiedTime" : 1526711246759,
      "poemId" : "-Kh81_82qf6HXlqtzVzX",
      "title" : "Sadke sadke jaa...",
      "userId" : "aevxesLOS5UhQs5V4vOqLxajtOt1",
      "userName" : "Sarath prakash m.v"
    },
    "-Kh88KXQNb7zsNnhPUpF" : {
      "author" : "-KOslJKHcGRjQA7eg3cY",
      "body" : "Tere mande change bol\nMain sajna jar lungi\nIk vari keh zubaano\nMaut vi mar lungi\n\nMaadi nigah je tere te koi rakhe\nTe kolle wangu main saadh jan\n\nTenu mere ton siva na koi takhe\nVe kandh ban main kad jaa (x2)",
      "defaultTitle" : true,
      "id" : "-Kh88KXQNb7zsNnhPUpF",
      "likes" : {
        "5ScOhPfV56fPBAUjN99a4akA4ut1" : true,
        "FjtbQ0uEu7d27LzRE6b24jqezhH2" : true,
        "IK1NXXgKhJTzbdbii8GnIBvB8QU2" : true,
        "NPiu7GKDzTROz9bdcaR8QaviAO73" : true,
        "U0AxuMyPiLfHhABNBpGadOArzuD3" : true,
        "aVoO5h4MVVZb3apk4Df5LSEjL0h1" : true,
        "erFBpFk99bauW5f83oJZQrlelst2" : true,
        "tXxLYPCw0Qdh1g76s0U3PQeE1WD3" : true
      },
      "likesCount" : 8,
      "modifiedTime" : 1526896830602,
      "mood" : {
        "-KR7nqJhs-JObcKvCRV2" : true,
        "-KR7vF88MdJlOg6A_3ZG" : true
      },
      "poemId" : "-Kh88KXQNb7zsNnhPUpF",
      "title" : "Tere mande chan...",
      "userId" : "aevxesLOS5UhQs5V4vOqLxajtOt1",
      "userName" : "Sarath prakash m.v"
    }
  },
  "tags" : {
    "-KbTdOwAu2z9z5WBZGxc" : {
      "name" : "school",
      "poems" : {
        "-KbAWDUBG2ihMMCo78vC" : true
      },
      "tagId" : "-KbTdOwAu2z9z5WBZGxc"
    },
    "-KcStP_7c9kcZDea5ylg" : {
      "name" : "kids poem",
      "poems" : {
        "-KcStQBWcQ_nNeB8qdPE" : true
      },
      "tagId" : "-KcStP_7c9kcZDea5ylg"
    },
    "-KsggkLMKr6B-AMK0WL-" : {
      "name" : "renew",
      "poems" : {
        "-Ksgoa_5fdhuUDEX8Mya" : true
      },
      "tagId" : "-KsggkLMKr6B-AMK0WL-"
    },
    "-KtWl2D_CyCThcL6oCuN" : {
      "name" : "nothing",
      "poems" : {
        "-KtWkleIUQhAUFX09q14" : true
      },
      "tagId" : "-KtWl2D_CyCThcL6oCuN"
    },
    "-LCDoSLuNL5aoWiK24d9" : {
      "name" : "trigger",
      "tagId" : "-LCDoSLuNL5aoWiK24d9"
    },
    "-LCScwbE29Z1D6kr0fBk" : {
      "name" : "nice",
      "tagId" : "-LCScwbE29Z1D6kr0fBk"
    },
    "-LCbZpU5XDWQgn9_qHB_" : {
      "name" : "life",
      "poems" : {
        "-KbAWDUBG2ihMMCo78vC" : true
      },
      "tagId" : "-LCbZpU5XDWQgn9_qHB_"
    }
  }
}
